…
``` r
birthweight_data = read_csv(file = "./data/birthweight.csv") %>% 
  janitor::clean_names() %>%
  mutate(
    babysex = factor(babysex, levels =  c("1", "2"), labels = c("male", "female")),
    frace = factor(frace, levels =  c("1", "2", "3", "4", "8", "9"), labels = c("white", "black", "asian", "puerto rican", "other", "unknown")),
    malform = factor(malform, levels =  c("0", "1"), labels = c("absent", "present")),
    mrace = factor(mrace, levels =  c("1", "2", "3", "4", "8"), labels = c("white", "black", "asian", "puerto rican", "other"))
  ) %>%
  mutate(mblack = ifelse(mrace == "black", "true", "false"))
birthweight_data
```

    ## # A tibble: 4,342 x 21
    ##    babysex bhead blength   bwt delwt fincome frace gaweeks malform menarche
    ##    <fct>   <dbl>   <dbl> <dbl> <dbl>   <dbl> <fct>   <dbl> <fct>      <dbl>
    ##  1 female     34      51  3629   177      35 white    39.9 absent        13
    ##  2 male       34      48  3062   156      65 black    25.9 absent        14
    ##  3 female     36      50  3345   148      85 white    39.9 absent        12
    ##  4 male       34      52  3062   157      55 white    40   absent        14
    ##  5 female     34      52  3374   156       5 white    41.6 absent        13
    ##  6 male       33      52  3374   129      55 white    40.7 absent        12
    ##  7 female     33      46  2523   126      96 black    40.3 absent        14
    ##  8 female     33      49  2778   140       5 white    37.4 absent        12
    ##  9 male       36      52  3515   146      85 white    40.3 absent        11
    ## 10 male       33      50  3459   169      75 black    40.7 absent        12
    ## # ... with 4,332 more rows, and 11 more variables: mheight <dbl>,
    ## #   momage <dbl>, mrace <fct>, parity <dbl>, pnumlbw <dbl>, pnumsga <dbl>,
    ## #   ppbmi <dbl>, ppwt <dbl>, smoken <dbl>, wtgain <dbl>, mblack <chr>
…
